^C:\USERS\משתמש\SOURCE\REPOS\FILESYSTEM_WATCHDOG\FILESYSTEM_WATCHDOG\FILEWATCHER.CPP
/c /I"C:\VCPKG\SCRIPTS\BUILDSYSTEMS\MSBUILD\..\..\..\INSTALLED\X86-WINDOWS\INCLUDE" /ZI /JMC /nologo /W3 /WX- /diagnostics:column /sdl /Od /Oy- /D WIN32 /D _DEBUG /D _CONSOLE /D _UNICODE /D UNICODE /Gm- /EHsc /RTC1 /MDd /GS /fp:precise /permissive- /Zc:wchar_t /Zc:forScope /Zc:inline /std:c++17 /Fo"DEBUG\\" /Fd"DEBUG\VC142.PDB" /external:W3 /Gd /TP /analyze- /FC C:\USERS\משתמש\SOURCE\REPOS\FILESYSTEM_WATCHDOG\FILESYSTEM_WATCHDOG\FILEWATCHER.CPP
^C:\USERS\משתמש\SOURCE\REPOS\FILESYSTEM_WATCHDOG\FILESYSTEM_WATCHDOG\MAIN.CPP
/c /I"C:\VCPKG\SCRIPTS\BUILDSYSTEMS\MSBUILD\..\..\..\INSTALLED\X86-WINDOWS\INCLUDE" /ZI /JMC /nologo /W3 /WX- /diagnostics:column /sdl /Od /Oy- /D WIN32 /D _DEBUG /D _CONSOLE /D _UNICODE /D UNICODE /Gm- /EHsc /RTC1 /MDd /GS /fp:precise /permissive- /Zc:wchar_t /Zc:forScope /Zc:inline /std:c++17 /Fo"DEBUG\\" /Fd"DEBUG\VC142.PDB" /external:W3 /Gd /TP /analyze- /FC C:\USERS\משתמש\SOURCE\REPOS\FILESYSTEM_WATCHDOG\FILESYSTEM_WATCHDOG\MAIN.CPP
